{
  "project_info": {
    "project_number": "905524809729",
    "project_id": "rnauth-e56d9",
    "storage_bucket": "rnauth-e56d9.appspot.com"
  },
  "client": [
    {
      "client_info": {
        "mobilesdk_app_id": "1:905524809729:android:186df3d8739b903085b000",
        "android_client_info": {
          "package_name": "com.rnauth"
        }
      },
      "oauth_client": [
        {
          "client_id": "905524809729-kk4ur5evp70ia90c0lmnvumda7n6utb4.apps.googleusercontent.com",
          "client_type": 1,
          "android_info": {
            "package_name": "com.rnauth",
            "certificate_hash": "68923238b3191a78e16703c6a71e46bc80b08be7"
          }
        },
        {
          "client_id": "905524809729-fe9182hi95ft8uq3n3jvrvgtpjkjmpo3.apps.googleusercontent.com",
          "client_type": 3
        }
      ],
      "api_key": [
        {
          "current_key": "AIzaSyCwdfAi97xHC7Wahs4fCjtf3Apd0GdnqJc"
        }
      ],
      "services": {
        "appinvite_service": {
          "other_platform_oauth_client": [
            {
              "client_id": "905524809729-fe9182hi95ft8uq3n3jvrvgtpjkjmpo3.apps.googleusercontent.com",
              "client_type": 3
            }
          ]
        }
      }
    }
  ],
  "configuration_version": "1"
}